// Jest Snapshot v1, https://goo.gl/fbAQLP

exports[`renders 1`] = `
ShallowWrapper {
  "length": 1,
  Symbol(enzyme.__root__): [Circular],
  Symbol(enzyme.__unrendered__): <App />,
  Symbol(enzyme.__renderer__): Object {
    "batchedUpdates": [Function],
    "getNode": [Function],
    "render": [Function],
    "simulateEvent": [Function],
    "unmount": [Function],
  },
  Symbol(enzyme.__node__): Object {
    "instance": null,
    "key": undefined,
    "nodeType": "host",
    "props": Object {
      "children": <DragDropContext
        onDragEnd={[Function]}
>
        <div
                className="menu-summary"
        >
                <div
                        className="container"
                >
                        <div
                                className="row"
                        >
                                <div
                                        className="col-6 menu-summary-left"
                                >
                                        <span>
                                                0
                                                 item
                                                s
                                        </span>
                                </div>
                                <div
                                        className="col-6 menu-summary-right"
                                >
                                        
                                </div>
                        </div>
                </div>
        </div>
        <div
                className="container menu-builder"
        >
                <div
                        className="row"
                >
                        <div
                                className="col-4"
                        >
                                <Connect(Droppable)
                                        direction="vertical"
                                        droppableId="availableItems"
                                        ignoreContainerClipping={false}
                                        isCombineEnabled={false}
                                        isDropDisabled={false}
                                        type="DEFAULT"
                                >
                                        [Function]
                                </Connect(Droppable)>
                        </div>
                        <div
                                className="col-8"
                        >
                                <h2>
                                        Menu preview
                                </h2>
                                <Connect(Droppable)
                                        direction="vertical"
                                        droppableId="selectedItems"
                                        ignoreContainerClipping={false}
                                        isCombineEnabled={false}
                                        isDropDisabled={false}
                                        type="DEFAULT"
                                >
                                        [Function]
                                </Connect(Droppable)>
                        </div>
                </div>
        </div>
</DragDropContext>,
      "className": "wrapper",
    },
    "ref": null,
    "rendered": Object {
      "instance": null,
      "key": undefined,
      "nodeType": "class",
      "props": Object {
        "children": Array [
          <div
            className="menu-summary"
>
            <div
                        className="container"
            >
                        <div
                                    className="row"
                        >
                                    <div
                                                className="col-6 menu-summary-left"
                                    >
                                                <span>
                                                            0
                                                             item
                                                            s
                                                </span>
                                    </div>
                                    <div
                                                className="col-6 menu-summary-right"
                                    >
                                                
                                    </div>
                        </div>
            </div>
</div>,
          <div
            className="container menu-builder"
>
            <div
                        className="row"
            >
                        <div
                                    className="col-4"
                        >
                                    <Connect(Droppable)
                                                direction="vertical"
                                                droppableId="availableItems"
                                                ignoreContainerClipping={false}
                                                isCombineEnabled={false}
                                                isDropDisabled={false}
                                                type="DEFAULT"
                                    >
                                                [Function]
                                    </Connect(Droppable)>
                        </div>
                        <div
                                    className="col-8"
                        >
                                    <h2>
                                                Menu preview
                                    </h2>
                                    <Connect(Droppable)
                                                direction="vertical"
                                                droppableId="selectedItems"
                                                ignoreContainerClipping={false}
                                                isCombineEnabled={false}
                                                isDropDisabled={false}
                                                type="DEFAULT"
                                    >
                                                [Function]
                                    </Connect(Droppable)>
                        </div>
            </div>
</div>,
        ],
        "onDragEnd": [Function],
      },
      "ref": null,
      "rendered": Array [
        Object {
          "instance": null,
          "key": undefined,
          "nodeType": "host",
          "props": Object {
            "children": <div
              className="container"
>
              <div
                            className="row"
              >
                            <div
                                          className="col-6 menu-summary-left"
                            >
                                          <span>
                                                        0
                                                         item
                                                        s
                                          </span>
                            </div>
                            <div
                                          className="col-6 menu-summary-right"
                            >
                                          
                            </div>
              </div>
</div>,
            "className": "menu-summary",
          },
          "ref": null,
          "rendered": Object {
            "instance": null,
            "key": undefined,
            "nodeType": "host",
            "props": Object {
              "children": <div
                className="row"
>
                <div
                                className="col-6 menu-summary-left"
                >
                                <span>
                                                0
                                                 item
                                                s
                                </span>
                </div>
                <div
                                className="col-6 menu-summary-right"
                >
                                
                </div>
</div>,
              "className": "container",
            },
            "ref": null,
            "rendered": Object {
              "instance": null,
              "key": undefined,
              "nodeType": "host",
              "props": Object {
                "children": Array [
                  <div
                    className="col-6 menu-summary-left"
>
                    <span>
                                        0
                                         item
                                        s
                    </span>
</div>,
                  <div
                    className="col-6 menu-summary-right"
>
                    
</div>,
                ],
                "className": "row",
              },
              "ref": null,
              "rendered": Array [
                Object {
                  "instance": null,
                  "key": undefined,
                  "nodeType": "host",
                  "props": Object {
                    "children": <span>
                      0
                       item
                      s
</span>,
                    "className": "col-6 menu-summary-left",
                  },
                  "ref": null,
                  "rendered": Object {
                    "instance": null,
                    "key": undefined,
                    "nodeType": "host",
                    "props": Object {
                      "children": Array [
                        0,
                        " item",
                        "s",
                      ],
                    },
                    "ref": null,
                    "rendered": Array [
                      0,
                      " item",
                      "s",
                    ],
                    "type": "span",
                  },
                  "type": "div",
                },
                Object {
                  "instance": null,
                  "key": undefined,
                  "nodeType": "host",
                  "props": Object {
                    "children": Array [],
                    "className": "col-6 menu-summary-right",
                  },
                  "ref": null,
                  "rendered": Array [],
                  "type": "div",
                },
              ],
              "type": "div",
            },
            "type": "div",
          },
          "type": "div",
        },
        Object {
          "instance": null,
          "key": undefined,
          "nodeType": "host",
          "props": Object {
            "children": <div
              className="row"
>
              <div
                            className="col-4"
              >
                            <Connect(Droppable)
                                          direction="vertical"
                                          droppableId="availableItems"
                                          ignoreContainerClipping={false}
                                          isCombineEnabled={false}
                                          isDropDisabled={false}
                                          type="DEFAULT"
                            >
                                          [Function]
                            </Connect(Droppable)>
              </div>
              <div
                            className="col-8"
              >
                            <h2>
                                          Menu preview
                            </h2>
                            <Connect(Droppable)
                                          direction="vertical"
                                          droppableId="selectedItems"
                                          ignoreContainerClipping={false}
                                          isCombineEnabled={false}
                                          isDropDisabled={false}
                                          type="DEFAULT"
                            >
                                          [Function]
                            </Connect(Droppable)>
              </div>
</div>,
            "className": "container menu-builder",
          },
          "ref": null,
          "rendered": Object {
            "instance": null,
            "key": undefined,
            "nodeType": "host",
            "props": Object {
              "children": Array [
                <div
                  className="col-4"
>
                  <Connect(Droppable)
                                    direction="vertical"
                                    droppableId="availableItems"
                                    ignoreContainerClipping={false}
                                    isCombineEnabled={false}
                                    isDropDisabled={false}
                                    type="DEFAULT"
                  >
                                    [Function]
                  </Connect(Droppable)>
</div>,
                <div
                  className="col-8"
>
                  <h2>
                                    Menu preview
                  </h2>
                  <Connect(Droppable)
                                    direction="vertical"
                                    droppableId="selectedItems"
                                    ignoreContainerClipping={false}
                                    isCombineEnabled={false}
                                    isDropDisabled={false}
                                    type="DEFAULT"
                  >
                                    [Function]
                  </Connect(Droppable)>
</div>,
              ],
              "className": "row",
            },
            "ref": null,
            "rendered": Array [
              Object {
                "instance": null,
                "key": undefined,
                "nodeType": "host",
                "props": Object {
                  "children": <Connect(Droppable)
                    direction="vertical"
                    droppableId="availableItems"
                    ignoreContainerClipping={false}
                    isCombineEnabled={false}
                    isDropDisabled={false}
                    type="DEFAULT"
>
                    [Function]
</Connect(Droppable)>,
                  "className": "col-4",
                },
                "ref": null,
                "rendered": Object {
                  "instance": null,
                  "key": undefined,
                  "nodeType": "class",
                  "props": Object {
                    "children": [Function],
                    "direction": "vertical",
                    "droppableId": "availableItems",
                    "ignoreContainerClipping": false,
                    "isCombineEnabled": false,
                    "isDropDisabled": false,
                    "type": "DEFAULT",
                  },
                  "ref": null,
                  "rendered": [Function],
                  "type": [Function],
                },
                "type": "div",
              },
              Object {
                "instance": null,
                "key": undefined,
                "nodeType": "host",
                "props": Object {
                  "children": Array [
                    <h2>
                      Menu preview
</h2>,
                    <Connect(Droppable)
                      direction="vertical"
                      droppableId="selectedItems"
                      ignoreContainerClipping={false}
                      isCombineEnabled={false}
                      isDropDisabled={false}
                      type="DEFAULT"
>
                      [Function]
</Connect(Droppable)>,
                  ],
                  "className": "col-8",
                },
                "ref": null,
                "rendered": Array [
                  Object {
                    "instance": null,
                    "key": undefined,
                    "nodeType": "host",
                    "props": Object {
                      "children": "Menu preview",
                    },
                    "ref": null,
                    "rendered": "Menu preview",
                    "type": "h2",
                  },
                  Object {
                    "instance": null,
                    "key": undefined,
                    "nodeType": "class",
                    "props": Object {
                      "children": [Function],
                      "direction": "vertical",
                      "droppableId": "selectedItems",
                      "ignoreContainerClipping": false,
                      "isCombineEnabled": false,
                      "isDropDisabled": false,
                      "type": "DEFAULT",
                    },
                    "ref": null,
                    "rendered": [Function],
                    "type": [Function],
                  },
                ],
                "type": "div",
              },
            ],
            "type": "div",
          },
          "type": "div",
        },
      ],
      "type": [Function],
    },
    "type": "div",
  },
  Symbol(enzyme.__nodes__): Array [
    Object {
      "instance": null,
      "key": undefined,
      "nodeType": "host",
      "props": Object {
        "children": <DragDropContext
          onDragEnd={[Function]}
>
          <div
                    className="menu-summary"
          >
                    <div
                              className="container"
                    >
                              <div
                                        className="row"
                              >
                                        <div
                                                  className="col-6 menu-summary-left"
                                        >
                                                  <span>
                                                            0
                                                             item
                                                            s
                                                  </span>
                                        </div>
                                        <div
                                                  className="col-6 menu-summary-right"
                                        >
                                                  
                                        </div>
                              </div>
                    </div>
          </div>
          <div
                    className="container menu-builder"
          >
                    <div
                              className="row"
                    >
                              <div
                                        className="col-4"
                              >
                                        <Connect(Droppable)
                                                  direction="vertical"
                                                  droppableId="availableItems"
                                                  ignoreContainerClipping={false}
                                                  isCombineEnabled={false}
                                                  isDropDisabled={false}
                                                  type="DEFAULT"
                                        >
                                                  [Function]
                                        </Connect(Droppable)>
                              </div>
                              <div
                                        className="col-8"
                              >
                                        <h2>
                                                  Menu preview
                                        </h2>
                                        <Connect(Droppable)
                                                  direction="vertical"
                                                  droppableId="selectedItems"
                                                  ignoreContainerClipping={false}
                                                  isCombineEnabled={false}
                                                  isDropDisabled={false}
                                                  type="DEFAULT"
                                        >
                                                  [Function]
                                        </Connect(Droppable)>
                              </div>
                    </div>
          </div>
</DragDropContext>,
        "className": "wrapper",
      },
      "ref": null,
      "rendered": Object {
        "instance": null,
        "key": undefined,
        "nodeType": "class",
        "props": Object {
          "children": Array [
            <div
              className="menu-summary"
>
              <div
                            className="container"
              >
                            <div
                                          className="row"
                            >
                                          <div
                                                        className="col-6 menu-summary-left"
                                          >
                                                        <span>
                                                                      0
                                                                       item
                                                                      s
                                                        </span>
                                          </div>
                                          <div
                                                        className="col-6 menu-summary-right"
                                          >
                                                        
                                          </div>
                            </div>
              </div>
</div>,
            <div
              className="container menu-builder"
>
              <div
                            className="row"
              >
                            <div
                                          className="col-4"
                            >
                                          <Connect(Droppable)
                                                        direction="vertical"
                                                        droppableId="availableItems"
                                                        ignoreContainerClipping={false}
                                                        isCombineEnabled={false}
                                                        isDropDisabled={false}
                                                        type="DEFAULT"
                                          >
                                                        [Function]
                                          </Connect(Droppable)>
                            </div>
                            <div
                                          className="col-8"
                            >
                                          <h2>
                                                        Menu preview
                                          </h2>
                                          <Connect(Droppable)
                                                        direction="vertical"
                                                        droppableId="selectedItems"
                                                        ignoreContainerClipping={false}
                                                        isCombineEnabled={false}
                                                        isDropDisabled={false}
                                                        type="DEFAULT"
                                          >
                                                        [Function]
                                          </Connect(Droppable)>
                            </div>
              </div>
</div>,
          ],
          "onDragEnd": [Function],
        },
        "ref": null,
        "rendered": Array [
          Object {
            "instance": null,
            "key": undefined,
            "nodeType": "host",
            "props": Object {
              "children": <div
                className="container"
>
                <div
                                className="row"
                >
                                <div
                                                className="col-6 menu-summary-left"
                                >
                                                <span>
                                                                0
                                                                 item
                                                                s
                                                </span>
                                </div>
                                <div
                                                className="col-6 menu-summary-right"
                                >
                                                
                                </div>
                </div>
</div>,
              "className": "menu-summary",
            },
            "ref": null,
            "rendered": Object {
              "instance": null,
              "key": undefined,
              "nodeType": "host",
              "props": Object {
                "children": <div
                  className="row"
>
                  <div
                                    className="col-6 menu-summary-left"
                  >
                                    <span>
                                                      0
                                                       item
                                                      s
                                    </span>
                  </div>
                  <div
                                    className="col-6 menu-summary-right"
                  >
                                    
                  </div>
</div>,
                "className": "container",
              },
              "ref": null,
              "rendered": Object {
                "instance": null,
                "key": undefined,
                "nodeType": "host",
                "props": Object {
                  "children": Array [
                    <div
                      className="col-6 menu-summary-left"
>
                      <span>
                                            0
                                             item
                                            s
                      </span>
</div>,
                    <div
                      className="col-6 menu-summary-right"
>
                      
</div>,
                  ],
                  "className": "row",
                },
                "ref": null,
                "rendered": Array [
                  Object {
                    "instance": null,
                    "key": undefined,
                    "nodeType": "host",
                    "props": Object {
                      "children": <span>
                        0
                         item
                        s
</span>,
                      "className": "col-6 menu-summary-left",
                    },
                    "ref": null,
                    "rendered": Object {
                      "instance": null,
                      "key": undefined,
                      "nodeType": "host",
                      "props": Object {
                        "children": Array [
                          0,
                          " item",
                          "s",
                        ],
                      },
                      "ref": null,
                      "rendered": Array [
                        0,
                        " item",
                        "s",
                      ],
                      "type": "span",
                    },
                    "type": "div",
                  },
                  Object {
                    "instance": null,
                    "key": undefined,
                    "nodeType": "host",
                    "props": Object {
                      "children": Array [],
                      "className": "col-6 menu-summary-right",
                    },
                    "ref": null,
                    "rendered": Array [],
                    "type": "div",
                  },
                ],
                "type": "div",
              },
              "type": "div",
            },
            "type": "div",
          },
          Object {
            "instance": null,
            "key": undefined,
            "nodeType": "host",
            "props": Object {
              "children": <div
                className="row"
>
                <div
                                className="col-4"
                >
                                <Connect(Droppable)
                                                direction="vertical"
                                                droppableId="availableItems"
                                                ignoreContainerClipping={false}
                                                isCombineEnabled={false}
                                                isDropDisabled={false}
                                                type="DEFAULT"
                                >
                                                [Function]
                                </Connect(Droppable)>
                </div>
                <div
                                className="col-8"
                >
                                <h2>
                                                Menu preview
                                </h2>
                                <Connect(Droppable)
                                                direction="vertical"
                                                droppableId="selectedItems"
                                                ignoreContainerClipping={false}
                                                isCombineEnabled={false}
                                                isDropDisabled={false}
                                                type="DEFAULT"
                                >
                                                [Function]
                                </Connect(Droppable)>
                </div>
</div>,
              "className": "container menu-builder",
            },
            "ref": null,
            "rendered": Object {
              "instance": null,
              "key": undefined,
              "nodeType": "host",
              "props": Object {
                "children": Array [
                  <div
                    className="col-4"
>
                    <Connect(Droppable)
                                        direction="vertical"
                                        droppableId="availableItems"
                                        ignoreContainerClipping={false}
                                        isCombineEnabled={false}
                                        isDropDisabled={false}
                                        type="DEFAULT"
                    >
                                        [Function]
                    </Connect(Droppable)>
</div>,
                  <div
                    className="col-8"
>
                    <h2>
                                        Menu preview
                    </h2>
                    <Connect(Droppable)
                                        direction="vertical"
                                        droppableId="selectedItems"
                                        ignoreContainerClipping={false}
                                        isCombineEnabled={false}
                                        isDropDisabled={false}
                                        type="DEFAULT"
                    >
                                        [Function]
                    </Connect(Droppable)>
</div>,
                ],
                "className": "row",
              },
              "ref": null,
              "rendered": Array [
                Object {
                  "instance": null,
                  "key": undefined,
                  "nodeType": "host",
                  "props": Object {
                    "children": <Connect(Droppable)
                      direction="vertical"
                      droppableId="availableItems"
                      ignoreContainerClipping={false}
                      isCombineEnabled={false}
                      isDropDisabled={false}
                      type="DEFAULT"
>
                      [Function]
</Connect(Droppable)>,
                    "className": "col-4",
                  },
                  "ref": null,
                  "rendered": Object {
                    "instance": null,
                    "key": undefined,
                    "nodeType": "class",
                    "props": Object {
                      "children": [Function],
                      "direction": "vertical",
                      "droppableId": "availableItems",
                      "ignoreContainerClipping": false,
                      "isCombineEnabled": false,
                      "isDropDisabled": false,
                      "type": "DEFAULT",
                    },
                    "ref": null,
                    "rendered": [Function],
                    "type": [Function],
                  },
                  "type": "div",
                },
                Object {
                  "instance": null,
                  "key": undefined,
                  "nodeType": "host",
                  "props": Object {
                    "children": Array [
                      <h2>
                        Menu preview
</h2>,
                      <Connect(Droppable)
                        direction="vertical"
                        droppableId="selectedItems"
                        ignoreContainerClipping={false}
                        isCombineEnabled={false}
                        isDropDisabled={false}
                        type="DEFAULT"
>
                        [Function]
</Connect(Droppable)>,
                    ],
                    "className": "col-8",
                  },
                  "ref": null,
                  "rendered": Array [
                    Object {
                      "instance": null,
                      "key": undefined,
                      "nodeType": "host",
                      "props": Object {
                        "children": "Menu preview",
                      },
                      "ref": null,
                      "rendered": "Menu preview",
                      "type": "h2",
                    },
                    Object {
                      "instance": null,
                      "key": undefined,
                      "nodeType": "class",
                      "props": Object {
                        "children": [Function],
                        "direction": "vertical",
                        "droppableId": "selectedItems",
                        "ignoreContainerClipping": false,
                        "isCombineEnabled": false,
                        "isDropDisabled": false,
                        "type": "DEFAULT",
                      },
                      "ref": null,
                      "rendered": [Function],
                      "type": [Function],
                    },
                  ],
                  "type": "div",
                },
              ],
              "type": "div",
            },
            "type": "div",
          },
        ],
        "type": [Function],
      },
      "type": "div",
    },
  ],
  Symbol(enzyme.__options__): Object {
    "adapter": ReactSixteenAdapter {
      "options": Object {
        "enableComponentDidUpdateOnSetState": true,
      },
    },
  },
}
`;
